module gitlab.com/go153534623/vblog

go 1.22.7

require (
	github.com/caarlos0/env/v6 v6.10.1 // indirect
	github.com/gabriel-vasile/mimetype v1.4.3 // indirect
	github.com/go-playground/locales v0.14.1 // indirect
	github.com/go-playground/universal-translator v0.18.1 // indirect
	github.com/go-playground/validator/v10 v10.22.1 // indirect
	github.com/go-sql-driver/mysql v1.7.0 // indirect
	github.com/jinzhu/inflection v1.0.0 // indirect
	github.com/jinzhu/now v1.1.5 // indirect
	github.com/leodido/go-urn v1.4.0 // indirect
	golang.org/x/crypto v0.19.0 // indirect
	golang.org/x/net v0.21.0 // indirect
	golang.org/x/sys v0.17.0 // indirect
	golang.org/x/text v0.14.0 // indirect
	gopkg.in/yaml.v3 v3.0.1 // indirect
	gorm.io/driver/mysql v1.5.7 // indirect
	gorm.io/gorm v1.25.12 // indirect
)
